16 18 16
-1.000000 -0.000000 1.000000
-0.333333 -0.000000 1.000000
0.333333 -0.000000 1.000000
1.000000 -0.000000 1.000000
-1.000000 -0.000000 0.333333
-0.333333 -0.000000 0.333333
0.333333 -0.000000 0.333333
1.000000 -0.000000 0.333333
-1.000000 0.000000 -0.333333
-0.333333 0.000000 -0.333333
0.333333 0.000000 -0.333333
1.000000 0.000000 -0.333333
-1.000000 0.000000 -1.000000
-0.333333 0.000000 -1.000000
0.333333 0.000000 -1.000000
1.000000 0.000000 -1.000000
0 1 4
4 1 5
1 2 5
5 2 6
2 3 6
6 3 7
4 5 8
8 5 9
5 6 9
9 6 10
6 7 10
10 7 11
8 9 12
12 9 13
9 10 13
13 10 14
10 11 14
14 11 15
0.000000 1.000000 0.000000
0.000000 1.000000 0.000000
0.000000 1.000000 0.000000
0.000000 1.000000 0.000000
0.000000 1.000000 0.000000
0.000000 1.000000 0.000000
0.000000 1.000000 0.000000
0.000000 1.000000 0.000000
0.000000 1.000000 0.000000
0.000000 1.000000 0.000000
0.000000 1.000000 0.000000
0.000000 1.000000 0.000000
0.000000 1.000000 0.000000
0.000000 1.000000 0.000000
0.000000 1.000000 0.000000
0.000000 1.000000 0.000000
